crop,sample_id,lab_id,antioxidants,polyphenols,brix,proteins,variety,sample_source
peppers,KM060420H,11-13,3964.75,NA,6,NA,NA,store
peppers,8141,11-112,10385.81,77.56,6,NA,NA,store
peppers,8207,11-354,4629.77,53.67,4066666666666660,NA,NA,store
peppers,9557,11-430,11700.89,52.92,5,NA,NA,store
peppers,8216,11-828,8424553333333330,81.91,8566666666666660,NA,NA,store
peppers,8264,01-1ROTTEN,NA,NA,NA,NA,NA,store
peppers,8283,11-827,8675.68,80.19,1725321600,NA,NA,store
peppers,8266,01-1ROTTEN,NA,NA,NA,NA,NA,store
peppers,8270,01-1ROTTEN,NA,NA,NA,NA,NA,store
peppers,8272,01-1ROTTEN,NA,NA,NA,NA,NA,store
peppers,8281,11-781,10676.51,56.27,5,NA,NA,store
peppers,8295,11-776,9745.65,NA,1714953600,NA,NA,store
peppers,8143,11-858,3009.17,8931333333333330,4466666666666660,NA,NA,store
peppers,8114,11-850,9487303333333330,7970666666666660,5833333333333330,NA,NA,store
peppers,6994,-24335683200,5677.27,146.1,1725494400,NA,giant_marconi,farm
peppers,7417,11-907,1496685,8097333333333330,1712102400,NA,california_wonder,farm
peppers,10261,-24714374400,11031.45,5907333333333330,6166666666666660,NA,NA,store
peppers,9645,-22536921600,1171215e10,57405,5.85,NA,carmen,farm_market
peppers,10306,-23578300800,9165325,74.67,38e15,NA,NA,store
peppers,7407,-21558614400,79920633333333300,6738666666666660,9433333333333330,NA,jimmy_nardello,farm
peppers,7411,-21463920000,9543063333333330,10446666666666600,73999999999999900,NA,manganji,farm
peppers,7791,-21369225600,12557155,8590333333333330,5066666666666660,NA,yellow_marconi,farm
peppers,10309,-22379068800,6750.39,6197666666666660,4866666666666660,NA,NA,store
peppers,8199,-19160323200,10898765,69195,1725494400,NA,NA,farm_market
peppers,9630,01-1ROTTEN,NA,NA,NA,NA,NA,store
peppers,8148,-20170166400,9502049999999990,6922999999999990,34e15,NA,NA,farm_market
peppers,10595,-15973113600,8823515,13066666666666600,8266666666666660,NA,carmen,farm
peppers,9546,01-1ROTTEN,NA,NA,NA,NA,NA,store
peppers,9544,-12312518400,8567.31,110.63,1709683200,NA,NA,store
peppers,9538,-15594422400,8138.28,76.83,1725408000,NA,NA,store
peppers,9536,-14868576000,20259504000,51.3,1707004800,NA,NA,store
peppers,9530,01-1ROTTEN,NA,NA,NA,NA,NA,store
peppers,9563,-12470284800,8703615,12579666666666600,8333333333333330,NA,NA,store
peppers,9551,01-1ROTTEN,NA,NA,NA,NA,NA,store
peppers,10319,-16130880000,10016476666666600,89.12,6733333333333330,NA,NA,store
peppers,9554,-14773968000,4091904000,77.79,1725321600,NA,NA,store
peppers,8335,01-1ROTTEN,NA,NA,NA,NA,NA,store
peppers,8330,-14931648000,3872.55,53.93,1714780800,NA,NA,store
peppers,8320,01-1ROTTEN,NA,NA,NA,NA,NA,store
peppers,8315,-12501820800,9405.16,120.99,1714953600,NA,NA,store
peppers,9505,01-1ROTTEN,NA,NA,NA,NA,NA,store
peppers,9624,16656883200,9687066666666660,7022666666666660,1714694400,NA,NA,garden
peppers,8328,-13795660800,157387622400,NA,1704585600,NA,NA,store
peppers,8318,-12344054400,5039.48,67.12,1717632000,NA,NA,store
peppers,9526,01-1ROTTEN,NA,NA,NA,NA,NA,store
peppers,8337,01-1ROTTEN,NA,NA,NA,NA,NA,store
peppers,8310,01-1ROTTEN,NA,NA,NA,NA,NA,store
peppers,9519,-11397283200,5434.43,50.41,1707177600,NA,NA,store
peppers,7238,-14016585600,94403525,74655,7825,NA,oranos,farm
peppers,7235,-12628051200,9409466666666660,10433333333333300,7666666666666660,NA,carmen,farm
peppers,7166,-15562800000,18356466666666600,8117333333333330,3833333333333330,NA,jupiter,farm
peppers,7169,-15878419200,11168466666666600,721e13,3466666666666660,NA,jupiter,farm
peppers,10404,-13448592000,9502733333333330,168.44,8366666666666660,NA,gypsy,farm
peppers,10401,01-1ROTTEN,9422.15,144.88,1704672000,NA,lunchbox_yellow,farm
peppers,7347,-10134979200,199510905600,7705666666666660,39333333333333296,NA,california_wonder,farm
peppers,9589,01-1ROTTEN,NA,NA,NA,NA,NA,store
peppers,9600,-7705152000,180413827200,54.52,1725667200,NA,NA,store
peppers,9591,01-1ROTTEN,NA,NA,NA,NA,NA,store
peppers,9575,-7673616000,9068.33,92.51,1709856000,NA,NA,store
peppers,9569,-6821539200,8248.63,103.49,NA,NA,NA,store
peppers,9595,-6884697600,8559.82,153.91,1704758400,NA,NA,store
peppers,9571,-7736688000,8409.58,118.28,8,NA,NA,store
peppers,7039,-6790003200,223173446400,108.89,1725753600,NA,escamillo,farm
peppers,9635,-5717001600,956.55,11506666666666600,5933333333333330,NA,NA,store
peppers,10472,-5590771200,9428033333333330,145.77,39333333333333296,NA,diamond,farm
peppers,7526,-5306860800,8653.13,81.86,8366666666666660,NA,carmen,farm
peppers,10466,18550252800,6749.51,8953666666666660,NA,NA,sweet_banana,farm
peppers,10613,18644947200,8815075,5471333333333330,8366666666666660,NA,carmen,farm
peppers,10739,-27743817600,220279625,89.09,233684352000,NA,NA,farm
peppers,9650,-26071372800,3801596666666660,6466333333333330,4566666666666660,NA,vangard,farm_market
peppers,10571,19938700800,9999122222222220,12542125,7811111111111110,NA,carmen,farm
peppers,10779,22337078400,13586799999999900,109.92,4833333333333330,NA,california_wonder,farm
peppers,10493,23693990400,969.65,182.58,505e13,NA,NA,farm
peppers,9691,21989923200,185381222400,75.54,1709769600,NA,NA,store
peppers,9685,21958387200,153345657600,66.16,1720224000,NA,NA,store
peppers,9668,21895228800,9445.98,66.28,1717632000,NA,NA,store
peppers,9694,01-1ROTTEN,NA,NA,NA,NA,NA,store
peppers,9676,21926851200,9914.24,48.77,8,NA,NA,store
peppers,9679,21863692800,10717.17,63.6,1712448000,NA,NA,store
peppers,9665,01-1ROTTEN,NA,NA,NA,NA,NA,store
peppers,10499,26123904000,10802536666666600,43.03,8166666666666660,NA,carmen,farm
peppers,9617,27070588800,9217553333333330,5599666666666660,7866666666666660,NA,NA,store
peppers,9689,22463308800,10688.1,64.26,1714953600,NA,NA,store
peppers,10682,28364515200,8424526666666660,8863333333333330,4233333333333330,NA,gourmet,farm
peppers,UF013,1705017600,6439372857142850,10069857142857100,8.98,NA,jimmy_nardello,research_plots
peppers,UF028,12-16,7517232857142850,7880142857142850,8966666666666660,NA,jimmy_nardello,research_plots
peppers,10400,59384880000,7801.37,5721666666666660,48e14,NA,NA,store
peppers,10379,83652220800,10714.3,47.44,1709683200,NA,NA,store
peppers,10353,83778451200,11432385,59315,4449999999999990,NA,NA,store
peppers,10356,83715292800,9910119999999990,48005,58e14,NA,NA,store
peppers,10789,85892745600,8012.17,64.35,5833333333333330,NA,corno_di_toro,farm
peppers,10788,01-1ROTTEN,7761.48,93.29,1709683200,NA,corno_di_toro,farm
peppers,9734,88575120000,5683.18,47.95,1707004800,NA,NA,store
peppers,10347,01-1ROTTEN,NA,NA,NA,NA,NA,store
peppers,9729,01-1ROTTEN,NA,NA,NA,NA,NA,store
peppers,10341,88543497600,5497.59,65.88,1722643200,NA,NA,store
peppers,10344,01-1ROTTEN,NA,NA,NA,NA,NA,store
peppers,10333,01-1ROTTEN,NA,NA,NA,NA,NA,store
peppers,9724,89932032000,3929.98,52.52,NA,NA,NA,store
peppers,10330,90784108800,4287.41,NA,1712188800,NA,NA,store
peppers,8224,11-78,1759.99,51.33,NA,NA,NA,store
peppers,8170,11-75,10225.5,47.16,1714953600,NA,NA,store
peppers,8223,11-74,11391.45,59.89,1717632000,NA,NA,store
peppers,8186,11-77,12177.17,132.21,1725494400,NA,NA,store
peppers,8192,11-57,5600.41,NA,1720137600,NA,NA,store
peppers,8195,11-73,-4586284800,77,1706918400,NA,NA,store
peppers,8176,11-62,11434.1,134.14,1704499200,NA,NA,store
peppers,12313b,11-11843,628415778554353,14556127064045400,1712448000,NA,miniature_red_bell,farm
peppers,12358b,11-11797,7037922600872070,12472876080343200,1704758400,NA,carmen,farm
peppers,12395,11-11852,12778275401619300,10339794888189100,1714780800,NA,lilo,farm
peppers,12396,11-11720,10415488610408e3,18482669547502900,7,NA,corno_di_toro,farm
peppers,12321b,11-11860,15546066239065100,1112203519834860,1709510400,NA,revolution,farm
peppers,12505,11-11697,9915104271070020,13748514833806200,1712275200,NA,sweet_sunrise,farm
peppers,12341,11-11866,904403241193493,13041307112207200,1712361600,NA,ace,farm
peppers,12417,11-11698,8392752382114610,14174246007934600,1709856000,NA,carmen,farm
peppers,12452,11-11723,8023720433552280,15502085375307800,1704672000,NA,brocanto,farm
peppers,12457,11-11683,6216769046462040,14267470833855800,1720483200,NA,yummy,farm
peppers,12405,11-11862,11004550950657500,151371793138516,1704412800,NA,NA,farm
peppers,12460,11-11658,5801137999038,1039583573833570,1704758400,NA,yummy,farm
peppers,12407,11-11649,7340107309410560,14378322486192300,1709769600,NA,carmen,farm
peppers,15409,11-11689,24180524284763700,11516114437791e3,1704326400,NA,NA,farm
peppers,12458,11-11671,803332828103449,1805772757974130,1715040000,NA,carmen,farm
peppers,12360,11-11656,6680620200507190,13964361940633100,1720396800,NA,jimmy_nardello,farm
peppers,Foster049,12-10633,8366480073565210,9185245842144130,6.55,NA,NA,research_plots
peppers,Foster055,12-10639,8246874424388660,8340519785973300,1704585600,NA,NA,research_plots
peppers,12449,11-11634,8683976467976460,15333412143412100,1712534400,NA,carmen,farm
peppers,12415,11-11586,6702766264409280,13490225579291300,1704585600,NA,carmen,farm
peppers,7672,11-11690,8442931151340150,14268842605355800,1717459200,NA,escamillo,farm
peppers,12365,11-11555,9457451507331820,2084591952919080,1707004800,NA,flavorburst,farm
peppers,12347,11-11614,9872325501088490,18051800315291600,1704585600,NA,ace,farm
peppers,12391,11-11529,1001370395994890,8989700651156680,1709769600,NA,mellow_star_shishito,farm
peppers,12469,11-11540,7537024250467330,14684033639722800,1709424000,NA,chocolate_bell,farm
peppers,12485,11-11533,4733291510405480,8112881558847230,NA,NA,quadrato_asti_giallo,farm
peppers,15615,11-11221,8296257755868720,8117639508020980,1720310400,NA,NA,store
peppers,15616,11-11233,7932575740623020,6980199173553720,7,NA,NA,store
peppers,15641,11-14144,7035924479999980,14167956705882300,1709942400,NA,mini_sweet_pepper,store
peppers,15642,11-14143,6714716280281310,16020049138540500,NA,NA,mini_sweet_pepper,store
peppers,15699,11-14164,7300311210633950,13923743126789300,1720137600,NA,bell,store
peppers,15714,11-14160,10399133946598600,1351676900712430,1712448000,NA,bell,store
peppers,15713,11-14183,10112696555756400,1512017100610100,1709769600,NA,bell,store
peppers,15698,11-14168,7263494884715210,10809220482696e3,1720310400,NA,bell,store
peppers,15664,11-14155,10219544335266300,12751671964719900,1714953600,NA,bell,store
peppers,15712,11-14161,8725835478714740,13461505602506200,1715040000,NA,bell,store
peppers,15709,11-14172,10456827666651500,12936584466691200,7,NA,bell,store
peppers,15703,11-14169,9658233729286080,12914086402657200,1722988800,NA,bell,store
peppers,15695,11-14158,9009973097765170,14822748051948e3,1707004800,NA,bell,store
peppers,15707,11-14186,11026238889730700,17167084313078800,1720224000,NA,NA,store
peppers,15704,11-14163,9770104667609600,15591382281085200,8,NA,bell,store
peppers,15700,11-14154,12734987382545200,18980186879562700,1722902400,NA,NA,store
peppers,15651,11-14175,57141449274001,11630292861336100,1720051200,NA,bell,store
peppers,15652,11-14166,9379106926679230,11066170537149600,1722902400,NA,bell,store
peppers,15653,11-14170,1204232976485510,1457124189026570,1707177600,NA,bell,store
peppers,15659,11-14156,7904101766479310,11459214664830400,1722816000,NA,bell,store
peppers,15682,11-14184,7828878200449800,12064542404576900,1722816000,NA,NA,store
peppers,Boulder28,11-14173,10870326976606400,11012313010279600,1720137600,NA,NA,store
peppers,Boulder30,11-14167,21682191955526400,659812916939175,1717459200,NA,NA,store
peppers,Boulder10,11-14157,7170421112470950,10351265673997900,1717632000,NA,NA,store
peppers,15674,11-14162,11681016962185300,16890352269987400,1707177600,NA,bell,store
peppers,15671,11-14159,4651320727877820,11862777091888300,1720051200,NA,NA,store
peppers,15666,11-14171,728442572890863,1121370033166420,1709769600,NA,bell,store
peppers,Boulder15,11-14182,7593848997493720,12101961466165300,1725580800,NA,NA,store
peppers,Boulder07,11-14185,31635873224745200,8719348288075550,1717459200,NA,bell,store
peppers,Boulder16,11-14165,9972210842315350,14099407041916100,1707177600,NA,bell,store
peppers,Boulder22,11-14174,8645334274658040,1406611285702340,1709769600,NA,bell,store
peppers,CO2203,11-14178,9587916904709730,11983291183671200,1712275200,NA,NA,store
peppers,CO2207,11-14181,9482887079564260,16609872388202300,7,NA,bell,store
peppers,CO2206,11-14179,6357825988028130,1983850728112850,1720137600,NA,NA,store
peppers,CO2211,11-14177,11017766535742300,14040380250450500,1707264000,NA,NA,store
peppers,CO2216,11-14180,11556356733190200,14164371690014700,1707264000,NA,bell,store
peppers,CO2218,11-14176,5230020126576410,12830933608780600,1720137600,NA,bell,store
peppers,Kalamazoo01,11-15008,7196095426147600,6658352626445710,1720483200,NA,mini_sweet_pepper,store
peppers,Kalamazoo02,11-15009,6950247706020900,6604207313407540,9,NA,mini_sweet_pepper,store
peppers,Kalamazoo11,11-15010,74198734237482,5582931449928460,1709942400,NA,mini_sweet_pepper,store
peppers,AnnArbor08,11-15023,939898917135393,9018377198168470,1715040000,NA,NA,store
peppers,AnnArbor11,11-15025,8284504400264610,7625380327983e3,1709769600,NA,NA,store
peppers,AnnArbor18,11-15024,78539250281290400,7937154838903700,1725580800,NA,NA,store
peppers,Kalamazoo13,11-15076,4554023835816910,14394263721540900,1715212800,NA,NA,store
peppers,15731,11-15093,8160079681274890,10068924302788800,1717804800,NA,mini_sweet_pepper,store
peppers,15730,11-15092,8690109890109880,NA,1723161600,NA,mini_sweet_pepper,store
peppers,15739,11-17172,7648132947239250,841289050306748,NA,NA,NA,store
peppers,15738,11-17171,7602370087892990,9194530620121190,1707350400,NA,NA,store
peppers,UF016,1712880000,6034126666666660,122195,1725580800,NA,jimmy  nardello,farm
peppers,UF037,12-25,6056.57,65.81,1717804800,NA,jimmy  nardello,farm
peppers,UF019,1720742400,7247183333333330,12171333333333300,885e13,NA,jimmy  nardello,farm
peppers,UF022,1728691200,5334.79,73.4,9,NA,jimmy  nardello,farm
peppers,UF015,1710201600,184013683200,145.75,NA,NA,jimmy  nardello,farm
peppers,UF031,12-19,5965883333333330,9497666666666660,9.75,NA,jimmy  nardello,farm
peppers,UF030,12-18,1094.64,98.53,1725840000,NA,jimmy  nardello,farm
peppers,UF034,12-22,83562796800,7683333333333330,NA,NA,jimmy  nardello,farm
peppers,8219,-14900112000,6705.57,687325,1717459200,NA,NA,NA
